Working with Duplicate Observations using `tag_duplicates` • mStats
…
hsb2_mod2 <- hsb2_mod |> 
    dplyr::filter(dplyr::row_number() <= 5) |> 
    dplyr::bind_rows(hsb2_mod) |> 
    dplyr::arrange(id) |> 
    dplyr::mutate(math = ifelse(dplyr::row_number() == 1, 84, math))

hsb2_mod2 |> 
    dplyr::mutate(tag_duplicates(everything()))
#> $ Report of duplicates
#>   in terms of all variables
#>  copies observations surplus
#>       1          197       0
#>       2            8       4
#> # A tibble: 205 × 9
#>       id female     ses         read write  math   .n_   .N_ .dup_
#>    <dbl> <dbl+lbl>  <dbl+lbl>  <dbl> <dbl> <dbl> <int> <int> <lgl>
#>  1     1 1 [female] 1 [low]       34    44    84     1     1 FALSE
#>  2     1 1 [female] 1 [low]       34    44    40     1     1 FALSE
#>  3     2 1 [female] 2 [middle]    39    41    33     1     2 FALSE
#>  4     2 1 [female] 2 [middle]    39    41    33     2     2 TRUE 
#>  5     3 0 [male]   1 [low]       63    65    48     1     2 FALSE
#>  6     3 0 [male]   1 [low]       63    65    48     2     2 TRUE 
#>  7     4 1 [female] 1 [low]       44    50    41     1     2 FALSE
#>  8     4 1 [female] 1 [low]       44    50    41     2     2 TRUE 
#>  9     5 0 [male]   1 [low]       47    40    43     1     2 FALSE
#> 10     5 0 [male]   1 [low]       47    40    43     2     2 TRUE 
#> # ℹ 195 more rows

hsb2_mod2 |> 
    dplyr::mutate(tag_duplicates(id))
#> $ Report of duplicates
#>   in terms of id
#>  copies observations surplus
#>       1          195       0
#>       2           10       5
#> # A tibble: 205 × 9
#>       id female     ses         read write  math   .n_   .N_ .dup_
#>    <dbl> <dbl+lbl>  <dbl+lbl>  <dbl> <dbl> <dbl> <int> <int> <lgl>
#>  1     1 1 [female] 1 [low]       34    44    84     1     2 FALSE
#>  2     1 1 [female] 1 [low]       34    44    40     2     2 TRUE 
#>  3     2 1 [female] 2 [middle]    39    41    33     1     2 FALSE
#>  4     2 1 [female] 2 [middle]    39    41    33     2     2 TRUE 
#>  5     3 0 [male]   1 [low]       63    65    48     1     2 FALSE
#>  6     3 0 [male]   1 [low]       63    65    48     2     2 TRUE 
#>  7     4 1 [female] 1 [low]       44    50    41     1     2 FALSE
#>  8     4 1 [female] 1 [low]       44    50    41     2     2 TRUE 
#>  9     5 0 [male]   1 [low]       47    40    43     1     2 FALSE
#> 10     5 0 [male]   1 [low]       47    40    43     2     2 TRUE 
#> # ℹ 195 more rows
…
